<svg xmlns="http://www.w3.org/2000/svg" xmlns:xlink="http://www.w3.org/1999/xlink" xml:space="preserve" version="1.1" style="shape-rendering:geometricPrecision;text-rendering:geometricPrecision;image-rendering:optimizeQuality;" viewBox="0 0 8467 10583.75" x="0px" y="0px" fill-rule="evenodd" clip-rule="evenodd"><defs><style type="text/css">
   
    .fil0 {fill:black}
   
  </style></defs><g><path class="fil0" d="M724 1962c-148,528 -247,993 -196,1382 56,198 240,316 444,357l-134 2550c42,316 523,318 583,0l-142 -2546c213,-37 400,-157 446,-362 55,-363 -44,-831 -193,-1382l-117 -2 -111 690 -118 -688 -114 0 -113 688 -118 -688 -117 1zm3474 1c1249,0 2260,1012 2260,2261 0,1249 -1011,2261 -2260,2261 -1249,0 -2261,-1012 -2261,-2261 0,-1249 1012,-2261 2261,-2261zm0 1285c539,0 975,437 975,976 0,539 -436,976 -975,976 -539,0 -976,-437 -976,-976 0,-539 437,-976 976,-976zm3298 491c333,-113 486,-352 451,-904 -44,-954 -1019,-1196 -1197,-4 -32,592 121,808 439,891l-134 2548c41,316 522,318 583,0l-142 -2531z"/></g><text x="0" y="8482" fill="#000000" font-size="5px" font-weight="bold" font-family="'Helvetica Neue', Helvetica, Arial-Unicode, Arial, Sans-serif">Created by Trisula</text><text x="0" y="8487" fill="#000000" font-size="5px" font-weight="bold" font-family="'Helvetica Neue', Helvetica, Arial-Unicode, Arial, Sans-serif">from the Noun Project</text></svg>